{
  "name": "samtools_install",
  "title": "Install samtools",
  "summary": "App for instllin samtools 1.4.1 on DNAnexus Ubuntu 14.04",
  "dxapi": "1.0.0",
  "version": "0.0.4",
  "inputSpec": [
    {
      "name": "samtools_tar_bz2",
      "label": "Samtools bzipped tar ball",
      "class": "file",
      "optional": false,
      "patterns": [
        "*"
      ],
      "help": ""
    }
  ],
  "outputSpec": [
    {
      "name": "samtools_tar_gz",
      "label": "Gzipped samtools tarball",
      "class": "file",
      "patterns": [
        "*"
      ],
      "help": ""
    }
  ],
  "runSpec": {
    "timeoutPolicy": {
      "*": {
        "hours": 48
      }
    },
    "interpreter": "bash",
    "file": "src/samtools_install.sh",
    "systemRequirements": {
      "*": {
        "instanceType": "mem1_ssd1_x2"
      }
    },
    "distribution": "Ubuntu",
    "release": "14.04",
    "assetDepends": [
    {
        "id": "record-F4zxjY8067xGFFxKP7gzv95j"
    }
    ]
  },
  "access": {
    "network": [
      "*"
    ]
  }
}
