{
  "name": "chip-seq-dedup-1",
  "title": "ChIP-seq reads deduplication, step 1",
  "summary": "Deduplication and filtering of reads before marking duplicates with Picard tools",
  "dxapi": "1.0.0",
  "version": "0.0.6",
  "inputSpec": [
    {
      "name": "input_bam_file",
      "label": "bam file from aligner",
      "class": "file",
      "optional": false,
      "patterns": [
        "*"
      ],
      "help": ""
    }
  ],
  "outputSpec": [
    {
      "name": "filtered_bam",
      "label": "Filtered bam",
      "class": "file",
      "patterns": [
        "*"
      ],
      "help": ""
    }
  ],
  "runSpec": {
    "timeoutPolicy": {
      "*": {
        "hours": 48
      }
    },
    "interpreter": "bash",
    "file": "src/chip-seq-dedup-1.sh",
    "systemRequirements": {
      "*": {
        "instanceType": "mem1_ssd1_x4"
      }
    },
    "distribution": "Ubuntu",
    "release": "14.04"
  }
}
